{
    "id": "oasys/core/common",
    "type": "package",
    "value": {
        "description": "Common OASYS objects - generics, timers, etc.",
        "author": "Alex Hendren",
        "version": "1.0.0",
        "language": "c4cpp",
        "managed": false,
        "noapi": true
    }
}
